 Dj Mendez - Razor Tongue [2000]
 E-Rotic - Gimme Good Sex [1996]
 Scooter - Break It Up [1996]
 Members Of Mayday - Datapop [2000]
 Mike Candys with Evelyn feat. Patrick Miller - One Night in Ibiza [2011] [16:9] [NTSC, PCM, clean]
 David Guetta feat. Chris Willis - Love, Don't Let Me Go [2002] (TMF)
 Dune vs. Trubblemaker – Hardcore Vibes  [2000]
 Members Of Mayday - Save The Robots [1998]
 The Black & White Brothers - Put Your Hands Up (Dj Tonka Mix) [2013]
 Dj Ella - Take Me [2007]
 Groove Coverage - Poison [2012]
 Groove Coverage - She [2004]
 Groove Coverage - The End [2003]
 Groove Coverage - Runaway [2004]
 Groove Coverage - Holy Virgin [2006]
 Groove Coverage - On the Radio [2006]
 Groove Coverage - Because I Love You [2007]
 Groove Coverage - 7 Years and 50 Days [2004]
 Robyn - Who's That Girl (Clean) [2005]
 Basshunter - Dream on the Dancefloor [2012] [16:9]
 M.O.B - Every Single Day [2012] [16:9]
 Cosmic Gate - Back To Earth (Dvb) [2002]
 The Wiseguys - Start The Commotion (Zoolander Version) (PO) LPCM [1998]
 David Deejay feat. Mossano - Indianotech [2011]
 Night Crawlers - Push The Feelin On  Desert Version [2003]
 Metronomy - The Bay [2011] [16:9]
 Bonde do Role feat. Ce Cile - Brazilian Boys [2012] [16:9]
 M.I.A. - Galang [2004]
 Gold Chains & Sue Cie - California Nites [2004]
 Motor - Bleep #1 (PO) LPCM [2007]
Moved: Peter Benisch - Lindego [1998]
 Franz Ferdinand - Take Me Out () - [2004]
 Faithless - Music Matters [2006]
 United DeeJays for Central America - Too Much Rain [1999]
 Basic Element - Touch [1994]
 Basic Element - This Must be a Dream [1995]
 Jakatta feat. Seal - My Vision [2002] [PAL, clean, 6 ch]
 C Block - So strung out [1997]
 David Guetta Ft. Kelly Rowland - When Love Takes Over [2009]
 Loona - Latino Lover (VIVA) [2000]
 Sash! Ft. Tina Cousins - Mysterious Times [2017]
 Geo Da Silva & Saftik - Hey Mr. DJ Get Up [2011]
 Westbam - Right On [September 9, 2002] [Like Ice] (Viva)
 Covenant - Happy Man  [2006]
 Lexy & K-Paul - Vicious Love (VIVA Plus) 2004 [2004]
 Paul van Dyk - For an Angel 2009 [1994]
 David Vendetta - Freaky Girl [2007]
 Deep Dish & Stevie Nicks – Dreams (Clean) [2005]
 Boogie Pimps - Sunny (TWO VERSIONS) [2003]
 The Mixmaster - Grand Piano [1987]
